\relax 
\catcode `"\active 
\select@language{portuges}
\@writefile{toc}{\select@language{portuges}}
\@writefile{lof}{\select@language{portuges}}
\@writefile{lot}{\select@language{portuges}}
\@writefile{toc}{\contentsline {section}{\numberline {1}Resumo}{1}}
\newlabel{sec:resumo}{{1}{1}}
\@writefile{toc}{\contentsline {section}{\numberline {2}Introdu\IeC {\c c}\IeC {\~a}o}{1}}
\newlabel{sec:introducao}{{2}{1}}
\citation{tanenbaum2002steen}
\@writefile{toc}{\contentsline {section}{\numberline {3}Seguran\IeC {\c c}a em Sistemas Distribuidos}{2}}
\newlabel{sec:trabrel}{{3}{2}}
\@writefile{toc}{\contentsline {subsection}{\numberline {3.1} Ataques}{2}}
\@writefile{toc}{\contentsline {subsection}{\numberline {3.2}Defesas}{3}}
\@writefile{toc}{\contentsline {subsubsection}{\numberline {3.2.1}Criptografia:}{3}}
\@writefile{toc}{\contentsline {subsubsection}{\numberline {3.2.2}Autentica\IeC {\c c}\IeC {\~a}o:}{4}}
\@writefile{toc}{\contentsline {subsubsection}{\numberline {3.2.3}Canais seguros:}{4}}
\@writefile{toc}{\contentsline {subsection}{\numberline {3.3}Gerenciamento de seguran\IeC {\c c}a em sistemas distribu\IeC {\'\i }dos}{5}}
\bibstyle{sbc}
\bibdata{biblio/bibliografia}
\bibcite{tanenbaum2002steen}{Tanenbaum 2002}
\@writefile{toc}{\contentsline {section}{\numberline {4}Conclus\IeC {\~a}o}{6}}
\newlabel{sec:conclusao}{{4}{6}}
